{
	"development" : {
		"credential" : {
			"gmail": {
				"service": "Gmail",
				"auth": {
					"XOAuth2": {
						"user": "info.roomme@gmail.com", 
						"clientId": "184022854275-ee6btoo3ebtcrdfb0uuc117bvh4b7f9h.apps.googleusercontent.com",
						"clientSecret": "lgC4-835lJtaSvYTSlkYLA6D",
						"refreshToken": "1/yehMUGgeRIUF2NaLyrjX7Bt0fv6aOF1SIZm9jasThNI"
					}
				}
			},
			"alias" : "info.roomme@gmail.com"
		},
		"addressBook" : {
			"orders": "firyal.fakhril@gmail.com"
		}
	},
	"production" : {
		"credential" : {
			"gmail": {
				"service": "Gmail",
				"auth": {
					"XOAuth2": {
						"user": "info.roomme@gmail.com", 
						"clientId": "184022854275-ee6btoo3ebtcrdfb0uuc117bvh4b7f9h.apps.googleusercontent.com",
						"clientSecret": "lgC4-835lJtaSvYTSlkYLA6D",
						"refreshToken": "1/yehMUGgeRIUF2NaLyrjX7Bt0fv6aOF1SIZm9jasThNI"
					}
				}
			},
			"alias" : "info.roomme@gmail.com"
		},
		"addressBook" : {
			"orders": "firyal.fakhril@gmail.com"
		}
	}
}