{
	"development": {
		"key" : "c2554125",
		"secret" : "a96ff404b18e32b8",
		"appId" : null,
		"privateKey" : null
	},
	"production": {
		"key" : "c2554125",
		"secret" : "a96ff404b18e32b8",
		"appId" : null,
		"privateKey" : null
	}
}